%YAML 1.1
%TAG !u! tag:unity3d.com,2011:
--- !u!114 &11400000
MonoBehaviour:
  m_ObjectHideFlags: 0
  m_CorrespondingSourceObject: {fileID: 0}
  m_PrefabInternal: {fileID: 0}
  m_GameObject: {fileID: 0}
  m_Enabled: 1
  m_EditorHideFlags: 0
  m_Script: {fileID: 11500000, guid: f1b3b4b945939a54ea0b23d3396115fb, type: 3}
  m_Name: cay
  m_EditorClassIdentifier: 
  atlasAssets:
  - {fileID: 11400000, guid: 00d35da326c4ac042bfdcc0b6f561c7d, type: 2}
  scale: 0.001
  skeletonJSON: {fileID: 4900000, guid: b9284f09637fe8e499e4a08fb768d4d9, type: 3}
  skeletonDataModifiers: []
  fromAnimation: []
  toAnimation: []
  duration: []
  defaultMix: 0
  controller: {fileID: 9100000, guid: cc7f2fa604448534cb758b169d97ab9e, type: 2}
