%YAML 1.1
%TAG !u! tag:unity3d.com,2011:
--- !u!1045 &1
EditorBuildSettings:
  m_ObjectHideFlags: 0
  serializedVersion: 2
  m_Scenes:
  - enabled: 1
    path: Assets/GameAssets/Scenes/Game Menu.unity
    guid: aca2cf54181922b409fdadadf33c9aca
  - enabled: 1
    path: Assets/GameAssets/Scenes/Game Play.unity
    guid: a9f24bb974053bf4bb1e73423c61933f
  m_configObjects: {}
